...................
----------------------------------------------------------------------
Ran 19 tests in 1.051s

OK
Name             Stmts   Miss Branch BrPart  Cover   Missing
------------------------------------------------------------
Collatz.py          38      0     16      0   100%
TestCollatz.py      84      0      0      0   100%
------------------------------------------------------------
TOTAL              122      0     16      0   100%
