.............
----------------------------------------------------------------------
Ran 13 tests in 0.007s

OK
Name             Stmts   Miss Branch BrPart  Cover   Missing
------------------------------------------------------------
Collatz.py          32      0     10      0   100%
TestCollatz.py      59      0      0      0   100%
------------------------------------------------------------
TOTAL               91      0     10      0   100%
